<?xml version="1.0" encoding="utf-8"?>
<!-- Generator: Adobe Illustrator 23.0.6, SVG Export Plug-In . SVG Version: 6.00 Build 0)  -->
<svg version="1.1" id="Слой_1" xmlns="http://www.w3.org/2000/svg" xmlns:xlink="http://www.w3.org/1999/xlink" x="0px" y="0px"
	 viewBox="0 0 496 496" style="enable-background:new 0 0 496 496;" xml:space="preserve" fill="#000">
<g>
	<g>
		<g>
			<path d="M334.19,273.47c18.49-8.57,36.9-14.81,54.98-18.64c5.22-1.1,8.55-6.23,7.45-11.44c-1.1-5.22-6.22-8.55-11.44-7.45
				c-20.93,4.43-42.19,11.84-63.45,22.07c-11.88-14.17-25.47-28.98-40.14-43.65c-15.59-15.59-31.34-29.97-46.3-42.36
				c12.95-16.37,23.52-34.7,31.51-54.76c12.47-31.28,18.79-67.02,18.79-106.22c0-5.33-4.32-9.65-9.65-9.65
				c-5.33,0-9.65,4.32-9.65,9.65c0,60.41-15.49,110.4-46.08,148.98c-5.77-4.4-11.37-8.45-16.71-12.05
				c-28.61-19.3-45.65-23.82-55.18-14.64c-0.07,0.06-0.14,0.12-0.2,0.19c-0.01,0.01-0.02,0.02-0.03,0.03
				c-0.01,0.01-0.01,0.01-0.02,0.02c-2.44,2.45-3.95,5.4-4.52,8.93L1.05,482.27c-1.52,3.61-0.7,7.79,2.08,10.56
				c1.85,1.85,4.32,2.83,6.83,2.83c1.26,0,2.53-0.25,3.73-0.75c0.03-0.01,0,0,0.03-0.01l339.76-142.48
				c3.22-0.52,5.96-1.84,8.27-3.92c0.17-0.14,0.33-0.29,0.48-0.44c0.06-0.06,0.13-0.11,0.19-0.17c0.01-0.01,0.02-0.02,0.03-0.03
				c0.07-0.07,0.13-0.14,0.19-0.21c9.18-9.53,4.66-26.57-14.64-55.18C343.92,286.42,339.28,280.06,334.19,273.47z M76.87,426.88
				c-2.01,12.56-6.5,20.82-8.65,24.22l-40.24,16.87l40.86-97.45C76.84,390.57,79.61,409.77,76.87,426.88z M136.27,394.21
				c-3.89,22.19-14.22,32.88-17.15,35.54l-25.44,10.67c5.66-20.13,7.14-52.09-14.71-94.04l28.93-68.99
				C137.92,334.3,140.17,372.01,136.27,394.21z M170.71,408.11l-20.81,8.73c1.98-5.01,3.73-10.71,5-17.18
				c7.73-39.44-4.89-88.2-37.47-144.99l10.45-24.91c8.27,9.95,17.69,24.03,21.5,32.91c1.57,3.66,5.13,5.85,8.87,5.85
				c1.27,0,2.57-0.25,3.81-0.79c4.9-2.11,7.16-7.78,5.06-12.68c-5.66-13.17-20.02-33.67-31-44.95l15.96-38.06
				c2.8,5.13,6.26,10.74,10.41,16.9c2.86,4.24,5.99,8.64,9.36,13.15c33.02,50.11,32.28,101.4,25.82,135.62
				C190.81,374.11,176.11,400.76,170.71,408.11z M245.1,376.92l-45.83,19.22c6.62-14.52,13.37-33.57,17.38-54.85
				c4.48-23.76,6.45-55.01-1.84-88.75c4.57,4.83,9.28,9.67,14.1,14.5c14.44,14.44,29.02,27.84,42.98,39.58
				C270.5,352.2,249.6,372.97,245.1,376.92z M278.37,362.97c5.17-10.69,9.73-24.47,11.77-41.68c5.83,4.45,11.48,8.54,16.87,12.17
				c6.16,4.16,11.78,7.62,16.9,10.41L278.37,362.97z M312.33,313.66c-20.99-14.87-45.76-36.28-69.77-60.28
				c-24-24-45.41-48.78-60.28-69.76c-14.38-20.3-18.25-30.66-19.28-35.15c4.49,1.02,14.85,4.9,35.15,19.28
				c3.01,2.13,6.1,4.41,9.25,6.8c-0.68,0.7-1.34,1.4-2.03,2.09c-3.77,3.77-3.77,9.88,0,13.65c1.89,1.88,4.36,2.83,6.83,2.83
				s4.94-0.94,6.83-2.83c1.21-1.21,2.41-2.44,3.59-3.68c14.64,12.11,30.13,26.24,45.31,41.42c13.05,13.05,25.32,26.33,36.21,39.1
				c-1.74,0.97-3.49,1.95-5.23,2.96c-4.62,2.67-6.2,8.57-3.53,13.19c1.79,3.1,5.03,4.83,8.37,4.83c1.64,0,3.3-0.42,4.82-1.3
				c2.68-1.55,5.36-3.03,8.04-4.49c4.19,5.33,8.09,10.51,11.6,15.47c14.38,20.3,18.25,30.66,19.28,35.15
				C342.99,331.92,332.62,328.04,312.33,313.66z"/>
			<path d="M174.92,279.92c-2.19-4.86-7.9-7.03-12.77-4.84c-4.71,2.12-6.89,7.55-5.03,12.31c1.46,3.83,5.12,6.21,9.02,6.21
				c1.06,0,2.13-0.18,3.19-0.54c5.03-1.76,7.68-7.27,5.92-12.3C175.16,280.49,175.03,280.17,174.92,279.92z"/>
			<path d="M360.81,150.71c1.89,1.88,4.36,2.83,6.83,2.83c2.47,0,4.94-0.94,6.83-2.83c21.57-21.57,56.52-31.46,82.03-33.51
				c5.31-0.43,9.27-5.09,8.85-10.4c-0.43-5.31-5.08-9.26-10.4-8.85c-28.94,2.34-68.86,13.84-94.13,39.11
				C357.04,140.83,357.04,146.94,360.81,150.71z"/>
			<path d="M487.42,99.81c-0.27-0.07-0.55-0.15-0.83-0.22c-5.17-1.29-10.41,1.86-11.7,7.04c-1.29,5.17,1.86,10.41,7.04,11.7
				l0.49,0.13c0.84,0.22,1.68,0.33,2.51,0.33c4.26,0,8.16-2.84,9.32-7.15C495.63,106.48,492.57,101.19,487.42,99.81z"/>
			<path d="M71.26,82.1h9.65v9.65c0,5.33,4.32,9.65,9.65,9.65c5.33,0,9.65-4.32,9.65-9.65V82.1h9.65c5.33,0,9.65-4.32,9.65-9.65
				c0-5.33-4.32-9.65-9.65-9.65h-9.65v-9.65c0-5.33-4.32-9.65-9.65-9.65c-5.33,0-9.65,4.32-9.65,9.65v9.65h-9.65
				c-5.33,0-9.65,4.32-9.65,9.65C61.6,77.78,65.92,82.1,71.26,82.1z"/>
			<path d="M297.16,175.74h9.65v9.65c0,5.33,4.32,9.65,9.65,9.65c5.33,0,9.65-4.32,9.65-9.65v-9.65h9.65c5.33,0,9.65-4.32,9.65-9.65
				s-4.32-9.65-9.65-9.65h-9.65v-9.65c0-5.33-4.32-9.65-9.65-9.65c-5.33,0-9.65,4.32-9.65,9.65v9.65h-9.65
				c-5.33,0-9.65,4.32-9.65,9.65C287.5,171.42,291.83,175.74,297.16,175.74z"/>
			<path d="M431.35,404.54h-9.65v-9.65c0-5.33-4.32-9.65-9.65-9.65c-5.33,0-9.65,4.32-9.65,9.65v9.65h-9.65
				c-5.33,0-9.65,4.32-9.65,9.65c0,5.33,4.32,9.65,9.65,9.65h9.65v9.65c0,5.33,4.32,9.65,9.65,9.65c5.33,0,9.65-4.32,9.65-9.65
				v-9.65h9.65c5.33,0,9.65-4.32,9.65-9.65C441,408.86,436.68,404.54,431.35,404.54z"/>
			<path d="M376.77,59.3c15.97,0,28.96-12.99,28.96-28.96S392.74,1.37,376.77,1.37s-28.96,12.99-28.96,28.96S360.8,59.3,376.77,59.3
				z M376.77,20.68c5.32,0,9.65,4.33,9.65,9.65s-4.33,9.65-9.65,9.65c-5.32,0-9.65-4.33-9.65-9.65S371.45,20.68,376.77,20.68z"/>
			<path d="M437.14,168.98c-15.97,0-28.96,12.99-28.96,28.96s12.99,28.96,28.96,28.96s28.96-12.99,28.96-28.96
				S453.11,168.98,437.14,168.98z M437.14,207.6c-5.32,0-9.65-4.33-9.65-9.65c0-5.32,4.33-9.65,9.65-9.65s9.65,4.33,9.65,9.65
				C446.79,203.27,442.46,207.6,437.14,207.6z"/>
			<path d="M191.93,93.68c15.97,0,28.96-12.99,28.96-28.96s-12.99-28.96-28.96-28.96s-28.96,12.99-28.96,28.96
				S175.96,93.68,191.93,93.68z M191.93,55.07c5.32,0,9.65,4.33,9.65,9.65c0,5.32-4.33,9.65-9.65,9.65s-9.65-4.33-9.65-9.65
				C182.28,59.4,186.61,55.07,191.93,55.07z"/>
			<path d="M433.94,285.25c0-5.32-4.34-9.65-9.65-9.65c-5.32,0-9.65,4.34-9.65,9.65c0,5.32,4.34,9.65,9.65,9.65
				C429.6,294.91,433.94,290.57,433.94,285.25z"/>
			<path d="M323.89,93.14c5.32,0,9.65-4.34,9.65-9.65c0-5.32-4.34-9.65-9.65-9.65c-5.32,0-9.65,4.34-9.65,9.65
				C314.23,88.8,318.57,93.14,323.89,93.14z"/>
			<path d="M453.25,348c-5.32,0-9.65,4.34-9.65,9.65s4.34,9.65,9.65,9.65c5.32,0,9.65-4.34,9.65-9.65
				C462.9,352.34,458.56,348,453.25,348z"/>
			<path d="M134.67,30.33c5.32,0,9.65-4.34,9.65-9.65s-4.34-9.65-9.65-9.65s-9.65,4.34-9.65,9.65S129.35,30.33,134.67,30.33z"/>
		</g>
	</g>
</g>
</svg>
